5 Working with Data – Introduction to R
…
You should always make sure your code works as intended.

First let’s look at the frequency table of underage and see if records exist with the new categories, and if there are any missing values.

table(ncbirths$underage, useNA="always")

   adult underage     <NA> 
     963       37        0 

Next let’s check it against the value of mage itself. Let’s look at all rows where mothers age is either 17 or 18 mage %in% c(17,18), and only the columns of interest.

ncbirths[ncbirths$mage %in% c(17,18),c('mage', 'underage')]

# A tibble: 57 × 2
    mage underage
   <int> <chr>   
 1    17 underage
 2    17 underage
 3    17 underage
 4    17 underage
 5    17 underage
 6    17 underage
 7    17 underage
 8    17 underage
 9    17 underage
10    17 underage
# ℹ 47 more rows
…
