7 Efficient data management – Introduction to R
…
In the Files pane, open this Quarto file and Render this file.

library(dplyr)
flights <- nycflights13::flights

The nycflights13 package contains several data sets that can be used to help understand what causes delays. We will be using the flights data set which contains information about all flights that departed from NYC (e.g. EWR, JFK and LGA) in 2013.

7.1 Tibbles

The flights data set, and any data set created with dplyr, has a specific data type called a tibble. These are not as furry and prolific as their cousins the tribbles. tibbles behaves for all intents and purposes as a data.frame, just gets displayed differently. For example, the flights data set contains data on 19 characteristics (variables) from 336,776 flights. There’s no way I would want to print out a data set that large. But I’m gonna….

flights

# A tibble: 336,776 × 19
    year month   day dep_time sched_dep_time dep_delay arr_time sched_arr_time
   <int> <int> <int>    <int>          <int>     <dbl>    <int>          <int>
 1  2013     1     1      517            515         2      830            819
 2  2013     1     1      533            529         4      850            830
 3  2013     1     1      542            540         2      923            850
 4  2013     1     1      544            545        -1     1004           1022
 5  2013     1     1      554            600        -6      812            837
 6  2013     1     1      554            558        -4      740            728
 7  2013     1     1      555            600        -5      913            854
 8  2013     1     1      557            600        -3      709            723
 9  2013     1     1      557            600        -3      838            846
10  2013     1     1      558            600        -2      753            745
# ℹ 336,766 more rows
# ℹ 11 more variables: arr_delay <dbl>, carrier <chr>, flight <int>,
#   tailnum <chr>, origin <chr>, dest <chr>, air_time <dbl>, distance <dbl>,
#   hour <dbl>, minute <dbl>, time_hour <dttm>
…
Cartoon showing three fuzzy monsters either selecting or crossing out rows of a data table. If the type of animal in the table is “otter” and the site is “bay”, a monster is drawing a purple rectangle around the row. If those conditions are not met, another monster is putting a line through the column indicating it will be excluded. Stylized text reads “dplyr::filter() - keep rows that satisfy your conditions.”

Learn more about dplyr::filter.

filter() allows you to select a subset of the rows of a data frame. The first argument is the name of the data frame, and the second and subsequent are filtering expressions evaluated in the context of that data frame. For example, we can select all flights on January 1st with

filter(flights, month == 1, day == 1)

# A tibble: 842 × 19
    year month   day dep_time sched_dep_time dep_delay arr_time sched_arr_time
   <int> <int> <int>    <int>          <int>     <dbl>    <int>          <int>
 1  2013     1     1      517            515         2      830            819
 2  2013     1     1      533            529         4      850            830
 3  2013     1     1      542            540         2      923            850
 4  2013     1     1      544            545        -1     1004           1022
 5  2013     1     1      554            600        -6      812            837
 6  2013     1     1      554            558        -4      740            728
 7  2013     1     1      555            600        -5      913            854
 8  2013     1     1      557            600        -3      709            723
 9  2013     1     1      557            600        -3      838            846
10  2013     1     1      558            600        -2      753            745
# ℹ 832 more rows
# ℹ 11 more variables: arr_delay <dbl>, carrier <chr>, flight <int>,
#   tailnum <chr>, origin <chr>, dest <chr>, air_time <dbl>, distance <dbl>,
#   hour <dbl>, minute <dbl>, time_hour <dttm>

filter() works similarly to subset() except that you can give it any number of filtering conditions which are joined together with &. You can use other Boolean operators explicitly. Here we select flights in January or February.

filter(flights, month == 1 | month == 2)

# A tibble: 51,955 × 19
    year month   day dep_time sched_dep_time dep_delay arr_time sched_arr_time
   <int> <int> <int>    <int>          <int>     <dbl>    <int>          <int>
 1  2013     1     1      517            515         2      830            819
 2  2013     1     1      533            529         4      850            830
 3  2013     1     1      542            540         2      923            850
 4  2013     1     1      544            545        -1     1004           1022
 5  2013     1     1      554            600        -6      812            837
 6  2013     1     1      554            558        -4      740            728
 7  2013     1     1      555            600        -5      913            854
 8  2013     1     1      557            600        -3      709            723
 9  2013     1     1      557            600        -3      838            846
10  2013     1     1      558            600        -2      753            745
# ℹ 51,945 more rows
# ℹ 11 more variables: arr_delay <dbl>, carrier <chr>, flight <int>,
#   tailnum <chr>, origin <chr>, dest <chr>, air_time <dbl>, distance <dbl>,
#   hour <dbl>, minute <dbl>, time_hour <dttm>

7.2.2 Select

Often you work with large data sets with many columns where only a few are actually of interest to you. select() allows you to rapidly zoom in on a useful subset using operations that usually only work on numeric variable positions.

select(flights, month, day, year)

# A tibble: 336,776 × 3
   month   day  year
   <int> <int> <int>
 1     1     1  2013
 2     1     1  2013
 3     1     1  2013
 4     1     1  2013
 5     1     1  2013
 6     1     1  2013
 7     1     1  2013
 8     1     1  2013
 9     1     1  2013
10     1     1  2013
# ℹ 336,766 more rows

You can use a colon (:) to select all columns physically located between two variables.

select(flights, year:day)

# A tibble: 336,776 × 3
    year month   day
   <int> <int> <int>
 1  2013     1     1
 2  2013     1     1
 3  2013     1     1
 4  2013     1     1
 5  2013     1     1
 6  2013     1     1
 7  2013     1     1
 8  2013     1     1
 9  2013     1     1
10  2013     1     1
# ℹ 336,766 more rows

To exclude specific columns you use the minus sign (-)

select(flights, -carrier)

# A tibble: 336,776 × 18
    year month   day dep_time sched_dep_time dep_delay arr_time sched_arr_time
   <int> <int> <int>    <int>          <int>     <dbl>    <int>          <int>
 1  2013     1     1      517            515         2      830            819
 2  2013     1     1      533            529         4      850            830
 3  2013     1     1      542            540         2      923            850
 4  2013     1     1      544            545        -1     1004           1022
 5  2013     1     1      554            600        -6      812            837
 6  2013     1     1      554            558        -4      740            728
 7  2013     1     1      555            600        -5      913            854
 8  2013     1     1      557            600        -3      709            723
 9  2013     1     1      557            600        -3      838            846
10  2013     1     1      558            600        -2      753            745
# ℹ 336,766 more rows
# ℹ 10 more variables: arr_delay <dbl>, flight <int>, tailnum <chr>,
#   origin <chr>, dest <chr>, air_time <dbl>, distance <dbl>, hour <dbl>,
#   minute <dbl>, time_hour <dttm>

This also works to exclude all columns EXCEPT the ones between two variables.

select(flights, -(year:day))

# A tibble: 336,776 × 16
   dep_time sched_dep_time dep_delay arr_time sched_arr_time arr_delay carrier
      <int>          <int>     <dbl>    <int>          <int>     <dbl> <chr>  
 1      517            515         2      830            819        11 UA     
 2      533            529         4      850            830        20 UA     
 3      542            540         2      923            850        33 AA     
 4      544            545        -1     1004           1022       -18 B6     
 5      554            600        -6      812            837       -25 DL     
 6      554            558        -4      740            728        12 UA     
 7      555            600        -5      913            854        19 B6     
 8      557            600        -3      709            723       -14 EV     
 9      557            600        -3      838            846        -8 B6     
10      558            600        -2      753            745         8 AA     
# ℹ 336,766 more rows
# ℹ 9 more variables: flight <int>, tailnum <chr>, origin <chr>, dest <chr>,
#   air_time <dbl>, distance <dbl>, hour <dbl>, minute <dbl>, time_hour <dttm>
…
Header text: “dplyr:: rename() - rename columns”. Below, an illustration of a mouse standing on a wedge of swiss cheese, changing column names from “species” to “nemesis,” and “site” to “lair.” On a cork board next to the mouse are images of “Cheese thieves” suspects (narwhal, chicken and pika) and maps of their locations.

Learn more about dplyr::rename

Sometimes variables come to you in really obscure naming conventions. What the heck is SBA641? The rename() function converts an old name to a new name. The generic syntax is rename(new = old). 
For the purpose of these lecture notes I am not making this change permenant. There is no assignment operator <- used here, so this change is not going to persist into later code.

So to rename dep_time to departure_time we would type

rename(flights, departure_time = dep_time)

# A tibble: 336,776 × 19
    year month   day departure_time sched_dep_time dep_delay arr_time
   <int> <int> <int>          <int>          <int>     <dbl>    <int>
 1  2013     1     1            517            515         2      830
 2  2013     1     1            533            529         4      850
 3  2013     1     1            542            540         2      923
 4  2013     1     1            544            545        -1     1004
 5  2013     1     1            554            600        -6      812
 6  2013     1     1            554            558        -4      740
 7  2013     1     1            555            600        -5      913
 8  2013     1     1            557            600        -3      709
 9  2013     1     1            557            600        -3      838
10  2013     1     1            558            600        -2      753
# ℹ 336,766 more rows
# ℹ 12 more variables: sched_arr_time <int>, arr_delay <dbl>, carrier <chr>,
#   flight <int>, tailnum <chr>, origin <chr>, dest <chr>, air_time <dbl>,
#   distance <dbl>, hour <dbl>, minute <dbl>, time_hour <dttm>
…
Cartoon of cute fuzzy monsters dressed up as different X-men characters, working together to add a new column to an existing

Learn more about dplyr::mutate

As well as selecting from the set of existing columns, it’s often useful to add new columns that are functions of existing columns. This is the job of mutate()!

Here we create two variables: gain (as arrival delay minus departure delay) and speed (as distance divided by time, converted to hours).

a <- mutate(flights, gain = arr_delay - dep_delay, 
                speed = distance / air_time * 60)
select(a, gain, distance, air_time, speed)

# A tibble: 336,776 × 4
    gain distance air_time speed
   <dbl>    <dbl>    <dbl> <dbl>
 1     9     1400      227  370.
 2    16     1416      227  374.
 3    31     1089      160  408.
 4   -17     1576      183  517.
 5   -19      762      116  394.
 6    16      719      150  288.
 7    24     1065      158  404.
 8   -11      229       53  259.
 9    -5      944      140  405.
10    10      733      138  319.
# ℹ 336,766 more rows

One key advantage of mutate is that you can refer to the columns you just created. In one mutate call we can create the gain variable, and then use it to create gain_per_hour.

mutate(flights, gain = arr_delay - dep_delay, 
                gain_per_hour = gain / (air_time / 60 ))

# A tibble: 336,776 × 21
    year month   day dep_time sched_dep_time dep_delay arr_time sched_arr_time
   <int> <int> <int>    <int>          <int>     <dbl>    <int>          <int>
 1  2013     1     1      517            515         2      830            819
 2  2013     1     1      533            529         4      850            830
 3  2013     1     1      542            540         2      923            850
 4  2013     1     1      544            545        -1     1004           1022
 5  2013     1     1      554            600        -6      812            837
 6  2013     1     1      554            558        -4      740            728
 7  2013     1     1      555            600        -5      913            854
 8  2013     1     1      557            600        -3      709            723
 9  2013     1     1      557            600        -3      838            846
10  2013     1     1      558            600        -2      753            745
# ℹ 336,766 more rows
# ℹ 13 more variables: arr_delay <dbl>, carrier <chr>, flight <int>,
#   tailnum <chr>, origin <chr>, dest <chr>, air_time <dbl>, distance <dbl>,
#   hour <dbl>, minute <dbl>, time_hour <dttm>, gain <dbl>, gain_per_hour <dbl>
…
7.2.6 Arrange

The arrange() function changes the order of the rows for the whole data set based on the value of the variable being sorted.

Lets use a smaller data set with fewer variables so it’s easier to visualize.

flights2 <- select(flights, distance, origin, dep_delay)

7.2.6.1 Sort by one variable

Sort flights based on distance, from shortest to longest. This is Ascending order.

arrange(flights2, distance)

# A tibble: 336,776 × 3
   distance origin dep_delay
      <dbl> <chr>      <dbl>
 1       17 EWR           NA
 2       80 EWR           -2
 3       80 EWR           40
 4       80 EWR          134
 5       80 EWR           -1
 6       80 EWR           -5
 7       80 EWR           -4
 8       80 EWR           -5
 9       80 EWR           -3
10       80 EWR           -3
# ℹ 336,766 more rows

To reverse the sort order, use desc(). This is Decending order.

arrange(flights2, desc(distance))

# A tibble: 336,776 × 3
   distance origin dep_delay
      <dbl> <chr>      <dbl>
 1     4983 JFK           -3
 2     4983 JFK            9
 3     4983 JFK           14
 4     4983 JFK            0
 5     4983 JFK           -2
 6     4983 JFK           79
 7     4983 JFK          102
 8     4983 JFK            1
 9     4983 JFK         1301
10     4983 JFK           -1
# ℹ 336,766 more rows

7.2.6.2 Sort by two variables

You can sort by more than one variable. Rows are ordered by the first variable, and ties are broken using the second variable.

Here we sort flights first by origin airport, then by departure delay within each airport.

arrange(flights2, origin, dep_delay)

# A tibble: 336,776 × 3
   distance origin dep_delay
      <dbl> <chr>      <dbl>
 1      631 EWR          -25
 2      200 EWR          -23
 3      200 EWR          -23
 4      200 EWR          -22
 5      266 EWR          -22
 6     2402 EWR          -21
 7      200 EWR          -21
 8      200 EWR          -21
 9      937 EWR          -20
10     1065 EWR          -20
# ℹ 336,766 more rows
…
group it by date and then,

3

selects the necessary variables, and then,

4

calculate the mean arrival and departure delays, and then,

5

filter to only keep rows with a daily average delay over half hour.

# A tibble: 49 × 5
# Groups:   year, month [11]
    year month   day   arr   dep
   <int> <int> <int> <dbl> <dbl>
 1  2013     1    16  34.2  24.6
 2  2013     1    31  32.6  28.7
 3  2013     2    11  36.3  39.1
 4  2013     2    27  31.3  37.8
 5  2013     3     8  85.9  83.5
 6  2013     3    18  41.3  30.1
 7  2013     4    10  38.4  33.0
 8  2013     4    12  36.0  34.8
 9  2013     4    18  36.0  34.9
10  2013     4    19  47.9  46.1
# ℹ 39 more rows
…
