Homework 1
…
List out the variable name and data types for five different variables in the ames data set

Order, integer PID, integer MS. Subclass, integer MS. Zoning, character Lot. Frontage, integer

How many observations does the ames data set have? How many variables?

2930 observations and 82 variables.

Extract the variable that measures the overall condition of the house (Overall.Cond) by position (using bracket index notation []), and by variable names (using $ notation)

ames[,22]

# A tibble: 2,930 × 1
   Overall.Cond
          <int>
 1            5
 2            6
 3            6
 4            5
 5            5
 6            6
 7            5
 8            5
 9            5
10            5
# ℹ 2,920 more rows
…
